{
    "name": "Get a multiple-choice quiz game",
    "request": {
        "method": "GET",
        "urlPattern": "/quiz/b9593c9e-432f-4ed4-adbf-b07467f365cb"
    },
    "response": {
        "status": 200,
        "jsonBody": [
            {
                "question": "Who's that puppy?",
                "choices": [
                    "Laborador",
                    "Afghan Wolfhound",
                    "",
                    ""
                ],
                "correct-answer": 1,
                "image_url": "https://images.dog.ceo/breeds/hound-afghan/n02088094_1335.jpg"
            },
            {
                "question": "Who's that puppy?",
                "choices": [
                    "Great Dane",
                    "Scottish Deerhound",
                    "Doberman",
                    "Keeshond"
                ],
                "image_url": "https://images.dog.ceo/breeds/dane-great/n02109047_11178.jpg"
            },
            {
                "question": "Who's that puppy?",
                "choices": [
                    "English Bulldog",
                    "Australian Cattledog",
                    "French Bulldog",
                    "Great Dane"
                ],
                "image_url": "https://images.dog.ceo/breeds/bulldog-french/n02108915_4176.jpg"
            }
        ],
        "headers": {
            "Content-Type": "application/json"
        }
    }
}